^C:\JEELABYAH\CODE\FADE_4\FADE4_VST\BUILDS\VISUALSTUDIO2019\X64\RELEASE\STANDALONE PLUGIN\INCLUDE_JUCE_AUDIO_PLUGIN_CLIENT_STANDALONE.OBJ|C:\JEELABYAH\CODE\FADE_4\FADE4_VST\BUILDS\VISUALSTUDIO2019\X64\RELEASE\STANDALONE PLUGIN\RESOURCES.RES
/OUT:"C:\JEELABYAH\CODE\FADE_4\FADE4_VST\BUILDS\VISUALSTUDIO2019\X64\RELEASE\STANDALONE PLUGIN\\FADE4_VST.EXE" /NOLOGO FADE4_VST.LIB KERNEL32.LIB USER32.LIB GDI32.LIB WINSPOOL.LIB COMDLG32.LIB ADVAPI32.LIB SHELL32.LIB OLE32.LIB OLEAUT32.LIB UUID.LIB ODBC32.LIB ODBCCP32.LIB /MANIFEST /MANIFESTUAC:"level='asInvoker' uiAccess='false'" /manifest:embed /PDB:"X64\RELEASE\STANDALONE PLUGIN\\FADE4_VST.PDB" /SUBSYSTEM:WINDOWS /LARGEADDRESSAWARE /OPT:REF /OPT:ICF /LTCG:incremental /TLBID:1 /DYNAMICBASE /NXCOMPAT /IMPLIB:"C:\JEELABYAH\CODE\FADE_4\FADE4_VST\BUILDS\VISUALSTUDIO2019\X64\RELEASE\STANDALONE PLUGIN\FADE4_VST.LIB" /MACHINE:X64 "X64\RELEASE\STANDALONE PLUGIN\RESOURCES.RES"
"X64\RELEASE\STANDALONE PLUGIN\\INCLUDE_JUCE_AUDIO_PLUGIN_CLIENT_STANDALONE.OBJ"
