^C:\JEELABYAH\CODE\FADE_4\FADE4_VST\JUCELIBRARYCODE\INCLUDE_JUCE_AUDIO_PLUGIN_CLIENT_VST3.CPP
C:\JEELABYAH\CODE\FADE_4\FADE4_VST\BUILDS\VISUALSTUDIO2019\X64\RELEASE\VST3\VC142.PDB
C:\JEELABYAH\CODE\FADE_4\FADE4_VST\BUILDS\VISUALSTUDIO2019\X64\RELEASE\VST3\INCLUDE_JUCE_AUDIO_PLUGIN_CLIENT_VST3.OBJ
