^C:\JEELABYAH\CODE\FADE_4\FADE4_VST\BUILDS\VISUALSTUDIO2019\X64\DEBUG\SHARED CODE\FADE4.OBJ|C:\JEELABYAH\CODE\FADE_4\FADE4_VST\BUILDS\VISUALSTUDIO2019\X64\DEBUG\SHARED CODE\FM_MODENV.OBJ|C:\JEELABYAH\CODE\FADE_4\FADE4_VST\BUILDS\VISUALSTUDIO2019\X64\DEBUG\SHARED CODE\FM_MODLFO.OBJ|C:\JEELABYAH\CODE\FADE_4\FADE4_VST\BUILDS\VISUALSTUDIO2019\X64\DEBUG\SHARED CODE\FM_VOICE.OBJ|C:\JEELABYAH\CODE\FADE_4\FADE4_VST\BUILDS\VISUALSTUDIO2019\X64\DEBUG\SHARED CODE\FM_VOICEENV.OBJ|C:\JEELABYAH\CODE\FADE_4\FADE4_VST\BUILDS\VISUALSTUDIO2019\X64\DEBUG\SHARED CODE\FREQ_LUT.OBJ|C:\JEELABYAH\CODE\FADE_4\FADE4_VST\BUILDS\VISUALSTUDIO2019\X64\DEBUG\SHARED CODE\GLOBALCOMPONENT.OBJ|C:\JEELABYAH\CODE\FADE_4\FADE4_VST\BUILDS\VISUALSTUDIO2019\X64\DEBUG\SHARED CODE\INCLUDE_JUCE_AUDIO_BASICS.OBJ|C:\JEELABYAH\CODE\FADE_4\FADE4_VST\BUILDS\VISUALSTUDIO2019\X64\DEBUG\SHARED CODE\INCLUDE_JUCE_AUDIO_DEVICES.OBJ|C:\JEELABYAH\CODE\FADE_4\FADE4_VST\BUILDS\VISUALSTUDIO2019\X64\DEBUG\SHARED CODE\INCLUDE_JUCE_AUDIO_FORMATS.OBJ|C:\JEELABYAH\CODE\FADE_4\FADE4_VST\BUILDS\VISUALSTUDIO2019\X64\DEBUG\SHARED CODE\INCLUDE_JUCE_AUDIO_PLUGIN_CLIENT_UTILS.OBJ|C:\JEELABYAH\CODE\FADE_4\FADE4_VST\BUILDS\VISUALSTUDIO2019\X64\DEBUG\SHARED CODE\INCLUDE_JUCE_AUDIO_PROCESSORS.OBJ|C:\JEELABYAH\CODE\FADE_4\FADE4_VST\BUILDS\VISUALSTUDIO2019\X64\DEBUG\SHARED CODE\INCLUDE_JUCE_AUDIO_UTILS.OBJ|C:\JEELABYAH\CODE\FADE_4\FADE4_VST\BUILDS\VISUALSTUDIO2019\X64\DEBUG\SHARED CODE\INCLUDE_JUCE_CORE.OBJ|C:\JEELABYAH\CODE\FADE_4\FADE4_VST\BUILDS\VISUALSTUDIO2019\X64\DEBUG\SHARED CODE\INCLUDE_JUCE_CRYPTOGRAPHY.OBJ|C:\JEELABYAH\CODE\FADE_4\FADE4_VST\BUILDS\VISUALSTUDIO2019\X64\DEBUG\SHARED CODE\INCLUDE_JUCE_DATA_STRUCTURES.OBJ|C:\JEELABYAH\CODE\FADE_4\FADE4_VST\BUILDS\VISUALSTUDIO2019\X64\DEBUG\SHARED CODE\INCLUDE_JUCE_EVENTS.OBJ|C:\JEELABYAH\CODE\FADE_4\FADE4_VST\BUILDS\VISUALSTUDIO2019\X64\DEBUG\SHARED CODE\INCLUDE_JUCE_GRAPHICS.OBJ|C:\JEELABYAH\CODE\FADE_4\FADE4_VST\BUILDS\VISUALSTUDIO2019\X64\DEBUG\SHARED CODE\INCLUDE_JUCE_GUI_BASICS.OBJ|C:\JEELABYAH\CODE\FADE_4\FADE4_VST\BUILDS\VISUALSTUDIO2019\X64\DEBUG\SHARED CODE\INCLUDE_JUCE_GUI_EXTRA.OBJ|C:\JEELABYAH\CODE\FADE_4\FADE4_VST\BUILDS\VISUALSTUDIO2019\X64\DEBUG\SHARED CODE\INCLUDE_JUCE_OPENGL.OBJ|C:\JEELABYAH\CODE\FADE_4\FADE4_VST\BUILDS\VISUALSTUDIO2019\X64\DEBUG\SHARED CODE\MAINCOMPONENT.OBJ|C:\JEELABYAH\CODE\FADE_4\FADE4_VST\BUILDS\VISUALSTUDIO2019\X64\DEBUG\SHARED CODE\MIXERCOMPONENT.OBJ|C:\JEELABYAH\CODE\FADE_4\FADE4_VST\BUILDS\VISUALSTUDIO2019\X64\DEBUG\SHARED CODE\OPENVCOMPONENT.OBJ|C:\JEELABYAH\CODE\FADE_4\FADE4_VST\BUILDS\VISUALSTUDIO2019\X64\DEBUG\SHARED CODE\OPERATORCOMPONENT.OBJ|C:\JEELABYAH\CODE\FADE_4\FADE4_VST\BUILDS\VISUALSTUDIO2019\X64\DEBUG\SHARED CODE\OSCILLATOR_WAVETABLE.OBJ|C:\JEELABYAH\CODE\FADE_4\FADE4_VST\BUILDS\VISUALSTUDIO2019\X64\DEBUG\SHARED CODE\PLUGINEDITOR.OBJ|C:\JEELABYAH\CODE\FADE_4\FADE4_VST\BUILDS\VISUALSTUDIO2019\X64\DEBUG\SHARED CODE\PLUGINPROCESSOR.OBJ|C:\JEELABYAH\CODE\FADE_4\FADE4_VST\BUILDS\VISUALSTUDIO2019\X64\DEBUG\SHARED CODE\SYNTH_PARAMETERS.OBJ
/OUT:"C:\JEELABYAH\CODE\FADE_4\FADE4_VST\BUILDS\VISUALSTUDIO2019\X64\DEBUG\SHARED CODE\FADE4_VST.LIB" /NOLOGO /MACHINE:X64 "X64\DEBUG\SHARED CODE\\PLUGINPROCESSOR.OBJ"
"X64\DEBUG\SHARED CODE\\PLUGINEDITOR.OBJ"
"X64\DEBUG\SHARED CODE\\FADE4.OBJ"
"X64\DEBUG\SHARED CODE\\FM_MODENV.OBJ"
"X64\DEBUG\SHARED CODE\\FM_MODLFO.OBJ"
"X64\DEBUG\SHARED CODE\\FM_VOICE.OBJ"
"X64\DEBUG\SHARED CODE\\FM_VOICEENV.OBJ"
"X64\DEBUG\SHARED CODE\\FREQ_LUT.OBJ"
"X64\DEBUG\SHARED CODE\\GLOBALCOMPONENT.OBJ"
"X64\DEBUG\SHARED CODE\\MAINCOMPONENT.OBJ"
"X64\DEBUG\SHARED CODE\\MIXERCOMPONENT.OBJ"
"X64\DEBUG\SHARED CODE\\OPENVCOMPONENT.OBJ"
"X64\DEBUG\SHARED CODE\\OPERATORCOMPONENT.OBJ"
"X64\DEBUG\SHARED CODE\\OSCILLATOR_WAVETABLE.OBJ"
"X64\DEBUG\SHARED CODE\\SYNTH_PARAMETERS.OBJ"
"X64\DEBUG\SHARED CODE\\INCLUDE_JUCE_AUDIO_BASICS.OBJ"
"X64\DEBUG\SHARED CODE\\INCLUDE_JUCE_AUDIO_DEVICES.OBJ"
"X64\DEBUG\SHARED CODE\\INCLUDE_JUCE_AUDIO_FORMATS.OBJ"
"X64\DEBUG\SHARED CODE\\INCLUDE_JUCE_AUDIO_PLUGIN_CLIENT_UTILS.OBJ"
"X64\DEBUG\SHARED CODE\\INCLUDE_JUCE_AUDIO_PROCESSORS.OBJ"
"X64\DEBUG\SHARED CODE\\INCLUDE_JUCE_AUDIO_UTILS.OBJ"
"X64\DEBUG\SHARED CODE\\INCLUDE_JUCE_CORE.OBJ"
"X64\DEBUG\SHARED CODE\\INCLUDE_JUCE_CRYPTOGRAPHY.OBJ"
"X64\DEBUG\SHARED CODE\\INCLUDE_JUCE_DATA_STRUCTURES.OBJ"
"X64\DEBUG\SHARED CODE\\INCLUDE_JUCE_EVENTS.OBJ"
"X64\DEBUG\SHARED CODE\\INCLUDE_JUCE_GRAPHICS.OBJ"
"X64\DEBUG\SHARED CODE\\INCLUDE_JUCE_GUI_BASICS.OBJ"
"X64\DEBUG\SHARED CODE\\INCLUDE_JUCE_GUI_EXTRA.OBJ"
"X64\DEBUG\SHARED CODE\\INCLUDE_JUCE_OPENGL.OBJ"
